[
        {
        "name": "شارژر همراه انکر مدل A1214 PowerCore ظرفیت 10400 میلی آمپر ساعت",
        "price": "۱۶۷۰۰۰ تومان",
        "photo": "https://dkstatics-public.digikala.com/digikala-products/112347733.jpg?x-oss-process=image/resize,m_lfit,h_500,w_500/quality,q_80",
        "stars": "4",
        "votes": "۱۸۲۹ نفر",
        "seller": "اوند"
        },
        {
        "name": "شارژر همراه شیاومی مدل PLM09ZM ظرفیت 10000 میلی آمپر ساعت",
        "price": "172500 تومان",
        "photo": "https://dkstatics-public.digikala.com/digikala-products/2237092.jpg?x-oss-process=image/resize,m_lfit,h_500,w_500/quality,q_80",
        "stars": "4",
        "votes": "1916 نفر",
        "seller": "ماکسوم"
        },
        {
        "name": "عینک هوشمند با بلوتوث مدل GLS 100",
        "price": "۱۱۴۰۰۰ تومان",
        "photo": "https://dkstatics-public.digikala.com/digikala-products/1292228.jpg?x-oss-process=image/resize,m_lfit,h_500,w_500/quality,q_80",
        "stars": "4",
        "votes": "۲۶ نفر",
        "seller": "اس وی اس"
        },
        {
        "name": "شارژر همراه شیاومی مدل PLM09ZM ظرفیت 10000 میلی آمپر ساعت",
        "price": "۲۶۰۰۰ تومان",
        "photo": "https://dkstatics-public.digikala.com/digikala-products/5363736.jpg?x-oss-process=image/resize,m_lfit,h_500,w_500/quality,q_80",
        "stars": "3",
        "votes": "۱۸۱ نفر",
        "seller": "سونیک"
        },
        {
        "name": "شارژر همراه شیائومی مدل 2C ظرفیت 20000 میلی آمپر ساعت",
        "price": "۲۶۳۰۰۰ تومان",
        "photo": "https://dkstatics-public.digikala.com/digikala-products/2298986.jpg?x-oss-process=image/resize,m_lfit,h_500,w_500/quality,q_80",
        "stars": "5",
        "votes": "۱۸۳۴ نفر",
        "seller": "دیجی کالا"
        },
        {
        "name": "کاور 360 درجه مدل GKK مناسب برای گوشی موبایل سامسونگ Galaxy A50",
        "price": "۴۸۰۰۰ تومان",
        "photo": "https://dkstatics-public-2.digikala.com/digikala-products/111340985.jpg?x-oss-process=image/resize,m_lfit,h_500,w_500/quality,q_80",
        "stars": "4",
        "votes": "۷۶ نفر",
        "seller": "شاه بلوط"
        },
        {
        "name": "هدفون بی سیم سامسونگ مدل Level U",
        "price": "۳۳۹۰۰۰ تومان",
        "photo": "https://dkstatics-public.digikala.com/digikala-products/430888.jpg?x-oss-process=image/resize,m_lfit,h_500,w_500/quality,q_80",
        "stars": "4",
        "votes": "۷۳۷ نفر",
        "seller": "دیجی کالا"
        },
        {
        "name": "هندزفری بلوتوث مدل S530",
        "price": "۲۵۰۰۰ تومان",
        "photo": "https://dkstatics-public.digikala.com/digikala-products/2324935.jpg?x-oss-process=image/resize,m_lfit,h_500,w_500/quality,q_80",
        "stars": "4",
        "votes": "۷۵۷ نفر",
        "seller": "نیلوا"
        },

        {
        "name": "شارژر همراه بی سیم بلپینک BP932W وایرلس شارژ 10000 میلی آمپر ساعت",
        "price": "۲۹۷۵۰۰ تومان",
        "photo": "https://dkstatics-public.digikala.com/digikala-products/5235892.jpg?x-oss-process=image/resize,m_lfit,h_500,w_500/quality,q_80",
        "stars": "4",
        "votes": "۷۳ نفر",
        "seller": "بلپینک"
        },
        {
        "name": "کارت حافظه microSDHC سامسونگ مدل Evo Plus کلاس 10 استاندارد UHS-I U1 سرعت ",
        "price": "۶۳۰۰۰ تومان",
        "photo": "https://dkstatics-public.digikala.com/digikala-products/1742691.jpg?x-oss-process=image/resize,m_lfit,h_500,w_500/quality,q_80",
        "stars": "4",
        "votes": "۱۸۳۰ نفر",
        "seller": "کمکو"
        },
        {
        "name": "هندزفری بلوتوث مدل S530",
        "price": "۹۴۰۰۰ تومان",
        "photo": "https://dkstatics-public.digikala.com/digikala-products/913367.jpg?x-oss-process=image/resize,m_lfit,h_500,w_500/quality,q_80",
        "stars": "2",
        "votes": "۵۳۶ نفر",
        "seller": "دلتا الکترو"
        }
]